# Materials file generated by ZModeler 2.2.5 (Build 990).

newmtl KUZOV
Ka 0.20 0.20 0.20
Kd 1.00 1.00 1.00
Ks 1.00 1.00 1.00
illum 1
map_Kd tex_1368_94.dds

newmtl SALON
Ka 0.20 0.20 0.20
Kd 1.00 1.00 1.00
Ks 1.00 1.00 1.00
illum 1
map_Kd tex_1325_94.dds

newmtl BUMPER
Ka 0.20 0.20 0.20
Kd 1.00 1.00 1.00
Ks 1.00 1.00 1.00
illum 1
map_Kd tex_2219_94.dds

newmtl ZBUMPER
Ka 0.20 0.20 0.20
Kd 1.00 1.00 1.00
Ks 1.00 1.00 1.00
illum 1
map_Kd tex_2219_94.dds

newmtl OTBUMPER
Ka 0.20 0.20 0.20
Kd 1.00 1.00 1.00
Ks 1.00 1.00 1.00
illum 1
map_Kd tex_1066_94.dds

newmtl DUGI
Ka 0.20 0.20 0.20
Kd 1.00 1.00 1.00
Ks 1.00 1.00 1.00
illum 1
map_Kd tex_2262_94.dds

newmtl TUMANKI
Ka 0.20 0.20 0.20
Kd 1.00 1.00 1.00
Ks 1.00 1.00 1.00
illum 1
map_Kd tex_0988_94.dds

newmtl DIOD
Ka 0.20 0.20 0.20
Kd 1.00 1.00 1.00
Ks 1.00 1.00 1.00
illum 1
map_Kd tex_1284_94.dds

newmtl STEKLO
Ka 0.20 0.20 0.20
Kd 1.00 1.00 1.00
Ks 1.00 1.00 1.00
illum 4
map_Kd tex_45376_94.dds

newmtl STEKLOPRIBOR
Ka 0.20 0.20 0.20
Kd 1.00 1.00 1.00
Ks 1.00 1.00 1.00
illum 4
map_Kd tex_45317_94.dds

newmtl SETKA
Ka 0.20 0.20 0.20
Kd 1.00 1.00 1.00
Ks 1.00 1.00 1.00
illum 4
map_Kd tex_45258_94.dds

newmtl PRIBORI
Ka 0.20 0.20 0.20
Kd 1.00 1.00 1.00
Ks 1.00 1.00 1.00
illum 1
map_Kd tex_2646_94.dds

newmtl LAMPOCHKI
Ka 0.20 0.20 0.20
Kd 1.00 1.00 1.00
Ks 1.00 1.00 1.00
illum 1
map_Kd tex_1284_94.dds

newmtl ARKI
Ka 0.20 0.20 0.20
Kd 1.00 1.00 1.00
Ks 1.00 1.00 1.00
illum 1
map_Kd tex_2433_94.dds

newmtl REMNI
Ka 0.20 0.20 0.20
Kd 1.00 1.00 1.00
Ks 1.00 1.00 1.00
illum 1
map_Kd tex_2176_94.dds

newmtl KANISTRA
Ka 0.20 0.20 0.20
Kd 1.00 1.00 1.00
Ks 1.00 1.00 1.00
illum 1
map_Kd tex_2091_94.dds

newmtl SUNDUK
Ka 0.20 0.20 0.20
Kd 1.00 1.00 1.00
Ks 1.00 1.00 1.00
illum 1
map_Kd tex_2518_94.dds

newmtl POKRISHKA
Ka 0.20 0.20 0.20
Kd 1.00 1.00 1.00
Ks 1.00 1.00 1.00
illum 1
map_Kd tex_1665_94.dds

newmtl DISK
Ka 0.20 0.20 0.20
Kd 1.00 1.00 1.00
Ks 1.00 1.00 1.00
illum 1
map_Kd tex_3790_94.dds

newmtl bumperstok
Ka 0.20 0.20 0.20
Kd 1.00 1.00 1.00
Ks 1.00 1.00 1.00
illum 1
map_Kd tex_1368_94.dds

newmtl porogi
Ka 0.20 0.20 0.20
Kd 1.00 1.00 1.00
Ks 1.00 1.00 1.00
illum 1
map_Kd tex_2433_94.dds
